INDEX VERSION 1.129+/home/edward/workspace/.metadata/.plugins/org.eclipse.jdt.core
675236771.index
2125400701.index
557555177.index
1600685887.index
3593327634.index
4027718361.index
3533483474.index
3586669266.index
182789276.index
3588757166.index
2540159985.index
398027219.index
2988452208.index
3541617440.index
383411751.index
3663734573.index
